first_name,last_name,email,address,complement,district,city,uf,cep
Adrian,Holovaty,holovaty@example.com,"Av. Ulisses Reis de Matos 100","1 andar",Morumbi,"Sao Paulo",SP,00568-602
Alan,Turing,turing@example.com,"Av Pedroso de Morais 1552",,Pinheiros,"Sao Paulo",SP,05420-002
Audrey,Roy Greenfeld,audrey.greenfeld@example.com,"Av 23 de Maio 3041",,Vila Mariana,"Sao Paulo",SP,04008-090
Daniel,Roy Greenfeld,danny.greenfeld@example.com,"Rua Padre Machado 68","10 andar",Vila Mariana,"Sao Paulo",SP,04127-001
Donald,Knuth,knuth@example.com,"Rua Miguel 337",casa 2,Jardim Novo Pantanal,"Sao Paulo",SP,04472-060
Grace,Hopper,hopper@example.com,"Rua Colombia 659",,"Jardim America","Sao Paulo",SP,01438-001
Guido,Van Rossum,vanrossum@example.com,"Av. Pacaembu 380",apto 501,Barra Funda,"Sao Paulo",SP,01155-000
Jacob,Kaplan Moss,kaplanmoss@example.com,"Av. Indianopolis 100","3 andar","Indianopolis","Sao Paulo",SP,04062-000
Peter,Baumgartner,baumgartner@example.com,"Rua Colombia 810",,"Jardim America","Sao Paulo",SP,01438-001
Simon,Willison,willison@example.com,"Av. Moreira Guimaraes 367",fundos,Moema,"Sao Paulo",SP,04074-030
